Taming exam results in pdf with pdftools
…
Remove the very first row.

Transform into a tibble.

tx3 <- tx2[-1] %>% 
  data_frame() 
tx3
   # A tibble: 2,579 x 1
      .                        
      <chr>                    
    1 Candidate N°       Result
    2 107131            FAIL   
    3 119233            PASS   
    4 123744            FAIL   
    5 127988            FAIL   
    6 133842            PASS   
    7 135692            PASS   
    8 140341            FAIL   
    9 142595            FAIL   
   10 151479            PASS   
   # ... with 2,569 more rows

Use tidyr::separate to split each row into two columns.

Remove all spaces.

tx4 <- separate(tx3, ., c("key", "value"), " ", extra = "merge") %>%  
  mutate(key = gsub('\\s+', '', key)) %>%
  mutate(value = gsub('\\s+', '', value)) 
# tx4[c(1:6, 48:52),]
tx4
   # A tibble: 2,579 x 2
      key       value   
      <chr>     <chr>   
    1 Candidate N°Result
    2 107131    FAIL    
    3 119233    PASS    
    4 123744    FAIL    
    5 127988    FAIL    
    6 133842    PASS    
    7 135692    PASS    
    8 140341    FAIL    
    9 142595    FAIL    
   10 151479    PASS    
   # ... with 2,569 more rows

Remove rows that do not represent table elements.

tx5 <- tx4[grep('^[0-9]', tx4[[1]]),] 
tx5
   # A tibble: 2,424 x 2
      key    value
      <chr>  <chr>
    1 107131 FAIL 
    2 119233 PASS 
    3 123744 FAIL 
    4 127988 FAIL 
    5 133842 PASS 
    6 135692 PASS 
    7 140341 FAIL 
    8 142595 FAIL 
    9 151479 PASS 
   10 151632 PASS 
   # ... with 2,414 more rows
…
